{
    "info": {
        "count": 43,
        "pages": 3,
        "next": "https://rickandmortyapi.com/api/character?page=2&gender=female&status=dead",
        "prev": null
    },
    "results": [
        {
            "id": 32,
            "name": "Bearded Lady",
            "status": "Dead",
            "species": "Alien",
            "type": "Parasite",
            "gender": "Female",
            "origin": {
                "name": "unknown",
                "url": ""
            },
            "location": {
                "name": "Earth (Replacement Dimension)",
                "url": "https://rickandmortyapi.com/api/location/20"
            },
            "image": "https://rickandmortyapi.com/api/character/avatar/32.jpeg",
            "episode": [
                "https://rickandmortyapi.com/api/episode/15"
            ],
            "url": "https://rickandmortyapi.com/api/character/32",
            "created": "2017-11-05T09:18:04.184Z"
        },
        {
            "id": 40,
            "name": "Beth's Mytholog",
            "status": "Dead",
            "species": "Mythological Creature",
            "type": "Mytholog",
            "gender": "Female",
            "origin": {
                "name": "Nuptia 4",
                "url": "https://rickandmortyapi.com/api/location/13"
            },
            "location": {
                "name": "Nuptia 4",
                "url": "https://rickandmortyapi.com/api/location/13"
            },
            "image": "https://rickandmortyapi.com/api/character/avatar/40.jpeg",
            "episode": [
                "https://rickandmortyapi.com/api/episode/18"
            ],
            "url": "https://rickandmortyapi.com/api/character/40",
            "created": "2017-11-05T10:02:26.701Z"
        },
        {
            "id": 60,
            "name": "Calypso",
            "status": "Dead",
            "species": "Human",
            "type": "Superhuman",
            "gender": "Female",
            "origin": {
                "name": "unknown",
                "url": ""
            },
            "location": {
                "name": "unknown",
                "url": ""
            },
            "image": "https://rickandmortyapi.com/api/character/avatar/60.jpeg",
            "episode": [
                "https://rickandmortyapi.com/api/episode/25"
            ],
            "url": "https://rickandmortyapi.com/api/character/60",
            "created": "2017-11-05T11:52:45.852Z"
        },
        {
            "id": 87,
            "name": "Cynthia",
            "status": "Dead",
            "species": "Alien",
            "type": "Zigerion",
            "gender": "Female",
            "origin": {
                "name": "unknown",
                "url": ""
            },
            "location": {
                "name": "Zigerion's Base",
                "url": "https://rickandmortyapi.com/api/location/46"
            },
            "image": "https://rickandmortyapi.com/api/character/avatar/87.jpeg",
            "episode": [
                "https://rickandmortyapi.com/api/episode/4"
            ],
            "url": "https://rickandmortyapi.com/api/character/87",
            "created": "2017-11-30T21:08:32.534Z"
        },
        {
            "id": 94,
            "name": "Diane Sanchez",
            "status": "Dead",
            "species": "Human",
            "type": "",
            "gender": "Female",
            "origin": {
                "name": "Earth (C-137)",
                "url": "https://rickandmortyapi.com/api/location/1"
            },
            "location": {
                "name": "Rick's Memories",
                "url": "https://rickandmortyapi.com/api/location/126"
            },
            "image": "https://rickandmortyapi.com/api/character/avatar/94.jpeg",
            "episode": [
                "https://rickandmortyapi.com/api/episode/22",
                "https://rickandmortyapi.com/api/episode/51"
            ],
            "url": "https://rickandmortyapi.com/api/character/94",
            "created": "2017-12-01T11:49:43.929Z"
        },
        {
            "id": 102,
            "name": "Donna Gueterman",
            "status": "Dead",
            "species": "Robot",
            "type": "",
            "gender": "Female",
            "origin": {
                "name": "unknown",
                "url": ""
            },
            "location": {
                "name": "Planet Squanch",
                "url": "https://rickandmortyapi.com/api/location/35"
            },
            "image": "https://rickandmortyapi.com/api/character/avatar/102.jpeg",
            "episode": [
                "https://rickandmortyapi.com/api/episode/21"
            ],
            "url": "https://rickandmortyapi.com/api/character/102",
            "created": "2017-12-01T12:21:21.357Z"
        },
        {
            "id": 116,
            "name": "Evil Beth Clone",
            "status": "Dead",
            "species": "Human",
            "type": "Clone",
            "gender": "Female",
            "origin": {
                "name": "unknown",
                "url": ""
            },
            "location": {
                "name": "Earth (C-137)",
                "url": "https://rickandmortyapi.com/api/location/1"
            },
            "image": "https://rickandmortyapi.com/api/character/avatar/116.jpeg",
            "episode": [
                "https://rickandmortyapi.com/api/episode/5"
            ],
            "url": "https://rickandmortyapi.com/api/character/116",
            "created": "2017-12-26T16:10:47.781Z"
        },
        {
            "id": 120,
            "name": "Evil Summer Clone",
            "status": "Dead",
            "species": "Human",
            "type": "Clone",
            "gender": "Female",
            "origin": {
                "name": "unknown",
                "url": ""
            },
            "location": {
                "name": "Earth (C-137)",
                "url": "https://rickandmortyapi.com/api/location/1"
            },
            "image": "https://rickandmortyapi.com/api/character/avatar/120.jpeg",
            "episode": [
                "https://rickandmortyapi.com/api/episode/5"
            ],
            "url": "https://rickandmortyapi.com/api/character/120",
            "created": "2017-12-26T16:24:02.059Z"
        },
        {
            "id": 189,
            "name": "Katarina",
            "status": "Dead",
            "species": "Human",
            "type": "",
            "gender": "Female",
            "origin": {
                "name": "Earth (Replacement Dimension)",
                "url": "https://rickandmortyapi.com/api/location/20"
            },
            "location": {
                "name": "Earth (Replacement Dimension)",
                "url": "https://rickandmortyapi.com/api/location/20"
            },
            "image": "https://rickandmortyapi.com/api/character/avatar/189.jpeg",
            "episode": [
                "https://rickandmortyapi.com/api/episode/24"
            ],
            "url": "https://rickandmortyapi.com/api/character/189",
            "created": "2017-12-29T19:13:57.070Z"
        },
        {
            "id": 198,
            "name": "Lady Katana",
            "status": "Dead",
            "species": "Humanoid",
            "type": "Cyborg",
            "gender": "Female",
            "origin": {
                "name": "unknown",
                "url": ""
            },
            "location": {
                "name": "Dorian 5",
                "url": "https://rickandmortyapi.com/api/location/29"
            },
            "image": "https://rickandmortyapi.com/api/character/avatar/198.jpeg",
            "episode": [
                "https://rickandmortyapi.com/api/episode/25"
            ],
            "url": "https://rickandmortyapi.com/api/character/198",
            "created": "2017-12-30T12:43:37.571Z"
        },
        {
            "id": 204,
            "name": "Lisa",
            "status": "Dead",
            "species": "Alien",
            "type": "",
            "gender": "Female",
            "origin": {
                "name": "unknown",
                "url": ""
            },
            "location": {
                "name": "Immortality Field Resort",
                "url": "https://rickandmortyapi.com/api/location/7"
            },
            "image": "https://rickandmortyapi.com/api/character/avatar/204.jpeg",
            "episode": [
                "https://rickandmortyapi.com/api/episode/26"
            ],
            "url": "https://rickandmortyapi.com/api/character/204",
            "created": "2017-12-30T12:59:58.460Z"
        },
        {
            "id": 210,
            "name": "Lucy",
            "status": "Dead",
            "species": "Human",
            "type": "",
            "gender": "Female",
            "origin": {
                "name": "Earth (Replacement Dimension)",
                "url": "https://rickandmortyapi.com/api/location/20"
            },
            "location": {
                "name": "Earth (Replacement Dimension)",
                "url": "https://rickandmortyapi.com/api/location/20"
            },
            "image": "https://rickandmortyapi.com/api/character/avatar/210.jpeg",
            "episode": [
                "https://rickandmortyapi.com/api/episode/11"
            ],
            "url": "https://rickandmortyapi.com/api/character/210",
            "created": "2017-12-30T14:01:23.319Z"
        },
        {
            "id": 248,
            "name": "Mrs. Refrigerator",
            "status": "Dead",
            "species": "Alien",
            "type": "Parasite",
            "gender": "Female",
            "origin": {
                "name": "unknown",
                "url": ""
            },
            "location": {
                "name": "Earth (Replacement Dimension)",
                "url": "https://rickandmortyapi.com/api/location/20"
            },
            "image": "https://rickandmortyapi.com/api/character/avatar/248.jpeg",
            "episode": [
                "https://rickandmortyapi.com/api/episode/15"
            ],
            "url": "https://rickandmortyapi.com/api/character/248",
            "created": "2017-12-30T18:12:38.369Z"
        },
        {
            "id": 250,
            "name": "Mrs. Sullivan",
            "status": "Dead",
            "species": "Human",
            "type": "Cat controlled dead lady",
            "gender": "Female",
            "origin": {
                "name": "Earth (C-500A)",
                "url": "https://rickandmortyapi.com/api/location/23"
            },
            "location": {
                "name": "Interdimensional Cable",
                "url": "https://rickandmortyapi.com/api/location/6"
            },
            "image": "https://rickandmortyapi.com/api/character/avatar/250.jpeg",
            "episode": [
                "https://rickandmortyapi.com/api/episode/8"
            ],
            "url": "https://rickandmortyapi.com/api/character/250",
            "created": "2017-12-30T18:24:49.372Z"
        },
        {
            "id": 344,
            "name": "Tammy Guetermann",
            "status": "Dead",
            "species": "Human",
            "type": "",
            "gender": "Female",
            "origin": {
                "name": "Earth (Replacement Dimension)",
                "url": "https://rickandmortyapi.com/api/location/20"
            },
            "location": {
                "name": "NX-5 Planet Remover",
                "url": "https://rickandmortyapi.com/api/location/105"
            },
            "image": "https://rickandmortyapi.com/api/character/avatar/344.jpeg",
            "episode": [
                "https://rickandmortyapi.com/api/episode/11",
                "https://rickandmortyapi.com/api/episode/16",
                "https://rickandmortyapi.com/api/episode/21",
                "https://rickandmortyapi.com/api/episode/22",
                "https://rickandmortyapi.com/api/episode/41"
            ],
            "url": "https://rickandmortyapi.com/api/character/344",
            "created": "2018-01-10T17:31:54.889Z"
        },
        {
            "id": 352,
            "name": "Tinkles",
            "status": "Dead",
            "species": "Alien",
            "type": "Parasite",
            "gender": "Female",
            "origin": {
                "name": "unknown",
                "url": ""
            },
            "location": {
                "name": "Earth (Replacement Dimension)",
                "url": "https://rickandmortyapi.com/api/location/20"
            },
            "image": "https://rickandmortyapi.com/api/character/avatar/352.jpeg",
            "episode": [
                "https://rickandmortyapi.com/api/episode/15"
            ],
            "url": "https://rickandmortyapi.com/api/character/352",
            "created": "2018-01-10T17:58:51.840Z"
        },
        {
            "id": 386,
            "name": "Zarbadar Gloonch",
            "status": "Dead",
            "species": "Alien",
            "type": "Drumbloxian",
            "gender": "Female",
            "origin": {
                "name": "unknown",
                "url": ""
            },
            "location": {
                "name": "Nuptia 4",
                "url": "https://rickandmortyapi.com/api/location/13"
            },
            "image": "https://rickandmortyapi.com/api/character/avatar/386.jpeg",
            "episode": [
                "https://rickandmortyapi.com/api/episode/13",
                "https://rickandmortyapi.com/api/episode/18"
            ],
            "url": "https://rickandmortyapi.com/api/character/386",
            "created": "2018-01-10T19:52:40.898Z"
        },
        {
            "id": 513,
            "name": "Judge",
            "status": "Dead",
            "species": "Human",
            "type": "",
            "gender": "Female",
            "origin": {
                "name": "Earth (Replacement Dimension)",
                "url": "https://rickandmortyapi.com/api/location/20"
            },
            "location": {
                "name": "Earth (Replacement Dimension)",
                "url": "https://rickandmortyapi.com/api/location/20"
            },
            "image": "https://rickandmortyapi.com/api/character/avatar/513.jpeg",
            "episode": [
                "https://rickandmortyapi.com/api/episode/32"
            ],
            "url": "https://rickandmortyapi.com/api/character/513",
            "created": "2020-05-02T12:27:08.223Z"
        },
        {
            "id": 532,
            "name": "Tony’s Wife",
            "status": "Dead",
            "species": "Alien",
            "type": "",
            "gender": "Female",
            "origin": {
                "name": "Globaflyn",
                "url": "https://rickandmortyapi.com/api/location/87"
            },
            "location": {
                "name": "Globaflyn",
                "url": "https://rickandmortyapi.com/api/location/87"
            },
            "image": "https://rickandmortyapi.com/api/character/avatar/532.jpeg",
            "episode": [
                "https://rickandmortyapi.com/api/episode/33"
            ],
            "url": "https://rickandmortyapi.com/api/character/532",
            "created": "2020-05-02T13:45:32.092Z"
        },
        {
            "id": 596,
            "name": "Floaty Non-Gasm Brotherhood Member Friend",
            "status": "Dead",
            "species": "Alien",
            "type": "Soulless Puppet",
            "gender": "Female",
            "origin": {
                "name": "Tickets Please Guy Nightmare",
                "url": "https://rickandmortyapi.com/api/location/98"
            },
            "location": {
                "name": "Tickets Please Guy Nightmare",
                "url": "https://rickandmortyapi.com/api/location/98"
            },
            "image": "https://rickandmortyapi.com/api/character/avatar/596.jpeg",
            "episode": [
                "https://rickandmortyapi.com/api/episode/37"
            ],
            "url": "https://rickandmortyapi.com/api/character/596",
            "created": "2020-08-06T11:31:40.334Z"
        }
    ]
}